{
    "users": [{
        "id": 1,
        "email": "wouter@l1nda.nl"
    }],
    "jobs": [{
        "id": 1,
        "title": "Restaurant Manager",
        "company": "Blue Lynx",
        "description": "In the near future, we will have a large number of roles across the Netherlands where your passion and personality will be needed to bring our client's restaurants to life. You are somebody who excels at inspiring others at cooking and serving the best products to great customers. In this role, you will receive a lot training and growth opportunities.",
        "responsibilities": [
            "Ensure all crew on shift demonstrates selling skills in line with company guidelines and incentives",
            "Handle and resolve customer complaints, with the aim of achieving 100% customer satisfaction",
            "Take appropriate steps to minimise stock run outs whilst minimising waste",
            "Ensure all areas of the restaurant are presented in accordance with the company’s policy and procedures, especially food preparation and food safety",
            "Train, coach and supervise crew members, to determine work requirements and priorities, delegate tasks to maximise restaurant performance",
            "Escalate any performance issues or employee breaches of policy/procedures",
            "Perform opening and closing duties, and all other daily routines in accordance with company policy and procedures"
        ],
        "requirements": [
            "Fluent in English and Dutch ",
            "1-2 years/' experience in the restaurant/catering/horeca industry",
            "1-2 years/' experience in a leadership role",
            "Able to work hygienically with fresh ingredients and ensure all crew members are doing so",
            "Able to lead abd communicate effectively with other crew members",
            "Treat customers with a positive attitude and polite manner",
            "Fun loving, and passion for high quality, fresh foods"
        ],
        "benefits": [
            "Competitive pay and generous benefits, including free meals",
            "Flexible full-time or part-time work schedule that makes sense for you",
            "One-on-one, self-paced training, and promotion from within",
            "Opportunity to gain experience in managing all aspects of restaurant operations, from customer service to food preparation, cash handling and opening/closing duties",
            "Defined career paths for those who are interested in a career"
        ],
        "workHours": "32 hours per week"
    }, {
        "id": 2,
        "title": "Head Chef",
        "company": "Bakers & Roasters Amsterdam",
        "description": "Bakers & Roasters Amsterdam is looking for a Head Chef to lead our hardworking team. We are a busy New Zealand style cafe serving all day brunch, lunch and a mouth-watering array of baked goods all made in house and all accompanied by delicious Ozone coffee.",
        "requirements": [
            "Two years minimum experience working in a commercial kitchen in a leading role",
            "Experience leading and motivating a team to ensure customer expectations are exceeded every-time.",
            "Experience developing kitchen systems & procedures ensuring most effective use of company resources at all time",
            "Experience in line / service cooking and running the pass",
            "The ability to work with speed and accuracy ensuring dishes are plated with flair and to specification while making sure quality is never compromised.",
            "Competency in all aspects of food preparation and cooking",
            "A passion for food and dedicated to working to the best of your abilities everyday",
            "Excellent hygiene standards ensuring always clean and well organised in the kitchen", 
            "Current EU recognised food safety training certification",
            "The ability to follow recipes restaurant and established work practices",
            "Experience in ordering ensuring food costs are always within specified targets", 
            "Experience rostering ensuring kitchen staffing levels are adequately staffed at all times and within budget", 
            "Experience maintaining HACCP records and procedures at all times",
            "Availability to work both weekdays and weekends"
        ],
        "benefits": [
            "Join a work environment full of international & passionate team members",
            "Daily, healthy lunch & great coffee/tea as much as you wish",
            "Great discounts for you and your friends at all our locations",
            "Compensation in accordance with local market standards"
        ],
        "workHours": "38 hours per week"
    }, {
        "id": 3,
        "title": "Hotel housekeeper",
        "company": "Marriott International",
        "description": "We are looking for people who like to make fresh beds and leave a spotless bathroom for the guests.People who are not afraid to work hard and who can clean hotel rooms quickly but thoroughly (even under beds and behind cupboards). As an approachable, friendly agency we listen to you preferences and offer a nice environment to work. Your main tasks will consist of cleaning hotel rooms, corridors and public areas, checking, verifying and updating room status, providing night turndown service and reporting room defects.",
        "requirements": [
            "Very guest - oriented",
            "Stress resistant",
            "Team player",
            "Flexible availability is preferred",
            "Experience as a cleaner is an advantage",
            "English or Dutch - speaking",
            "Living in Amsterdam"
        ],
        "workHours": "16-24 hours per week"
    }]
}
